Bayesian analysis with Stan • spsurv
…
Always inspect divergences, split R-hat, and ESS before interpreting
results.

tidybayes posterior draws

Install posterior and tidybayes for
long-format draws and interval plots. After
library(spsurv), spread_draws() and
tidy_draws() dispatch on Bayes fits when
tidybayes is loaded.

library(tidybayes)
dr <- as_draws_df.spbp(fit)
spread_draws(fit, `beta[age]`)
#> # A tibble: 200 × 4
#>    .chain .iteration .draw `beta[age]`
#>     <int>      <int> <int>       <dbl>
#>  1      1          1     1    0.0536  
#>  2      1          2     2    0.00867 
#>  3      1          3     3   -0.00540 
#>  4      1          4     4    0.0235  
#>  5      1          5     5   -0.000776
#>  6      1          6     6    0.0117  
#>  7      1          7     7    0.0568  
#>  8      1          8     8    0.0333  
#>  9      1          9     9    0.00501 
#> 10      1         10    10    0.0436  
#> # ℹ 190 more rows
…
